{
    "Plugin" :
        {
          "Version" : "1.0.1",
          "Type" : "Dynamic",
          "Name" : "Device Implementation Plugin",
          "Date" : "05.06.2016"
        },
    "Devices" : [
        {
            "USB" : {
                "VID0" : 8742,
                "PID0" : 42,
                "DID0" : 256,

                "VID1" : 8742,
                "PID1" : 42,
                "DID1" : 257
            },

            "VNA": {
                "Firmware" : "DSPFirmware 1.3.0",
                "Model" : "TR1300 / 1",
                "ROMSize" : 491520,
                "Synthesizer" : {
                    "AverageDelay" : 0.01e-3,
                    "FirstIF" : 0.0,
                    "SecondIF" : 7.6e6,

                    "Frequency" : {
                        "Min" : 300e3,
                        "Max" : 1.2e6,
                        "Default" : 600e6,
                        "BoundsResolution" : 1.0,
                        "GridResolution" : 1.0e-3,
                        "ReverseEnabled" : true
                    },

                    "Power" : {
                        "Min" : -50.0,
                        "Max" : 10.0,
                        "Default" : 0.0,
                        "GridResolution" : 0.05,
                        "SweepEnabled" : true
                    },

                    "Bandwidth" : {
                        "Min" : 1.0,
                        "Max" : 30e3,
                        "Default" : 10e3
                    },

                    "Points" : {
                        "Max" : 50000
                    }

                }
            }
        },
        {
            "USB" : {
                "VID0" : 8742,
                "PID0" : 41,
                "DID0" : 256,

                "VID1" : 8742,
                "PID1" : 41,
                "DID1" : 257
            },

            "VNA": {
                "Firmware" : "DSPFirmware 1.0.1",
                "Model" : "TR1300",
                "ROMSize" : 491520,
                "Synthesizer" : {
                    "AverageDelay" : 0.01e-3,
                    "FirstIF" : 0.0,
                    "SecondIF" : 7.6e6,

                    "Frequency" : {
                        "Min" : 300e3,
                        "Max" : 1.2e6,
                        "Default" : 600e6,
                        "BoundsResolution" : 1.0,
                        "GridResolution" : 1.0e-3,
                        "ReverseEnabled" : true
                    },

                    "Power" : {
                        "Min" : -50.0,
                        "Max" : 10.0,
                        "Default" : 0.0,
                        "GridResolution" : 0.05,
                        "SweepEnabled" : true
                    },

                    "Bandwidth" : {
                        "Min" : 1.0,
                        "Max" : 30e3,
                        "Default" : 10e3
                    },

                    "Points" : {
                        "Max" : 50000
                    }

                }
            }
        }
    ]
}
